Economic Modeling
…
tibble(e)

# A tibble: 44 x 1
   e$GDP_Bn $Imports_Q $Exports_Q $UnemploymentRa… $TradeDeficit
      <dbl>      <dbl>      <dbl>            <dbl>         <dbl>
 1   15671.    4.99e11    2.86e11              5               1
 2   15752.    5.47e11    3.10e11              5.3             1
 3   15667     5.69e11    3.07e11              6               1
 4   15328     4.76e11    2.67e11              6.9             1
 5   15156.    3.53e11    2.20e11              8.3             1
 6   15134.    3.60e11    2.23e11              9.3             1
 7   15189.    4.03e11    2.34e11              9.6             1
 8   15356.    4.33e11    2.60e11              9.9             1
 9   15415.    4.23e11    2.62e11              9.8             1
10   15557.    4.76e11    2.77e11              9.6             1
# … with 34 more rows, and 1 more variable: $TradeDeficit_Size <dbl>
…
